02_etch_a_sketch/pulse_generator.vcd
$date
	Thu Oct 21 17:29:54 2021
$end
$version
	Icarus Verilog
$end
$timescale
	1ps
$end
$scope module test_pulse_generator $end
$scope module UUT $end
$var wire 1 ! clk $end
$var wire 1 " ena $end
$var wire 1 # rst $end
$var wire 7 $ ticks [6:0] $end
$var wire 7 % counter [6:0] $end
$var reg 1 & counter_comparator $end
$var reg 1 ' counter_rst $end
$var reg 1 ( out $end
$scope module count $end
$var wire 1 ! clk $end
$var wire 1 " ena $end
$var wire 1 ' rst $end
$var wire 7 ) out [6:0] $end
$var reg 7 * d [6:0] $end
$scope module value $end
$var wire 1 ! clk $end
$var wire 7 + d [6:0] $end
$var wire 1 " ena $end
$var wire 1 ' rst $end
$var reg 7 , q [6:0] $end
$upscope $end
$upscope $end
$scope begin comparator $end
$upscope $end
$upscope $end
$upscope $end
$enddefinitions $end
#0
$dumpvars
bx ,
bx +
bx *
bx )
x(
1'
x&
bx %
b1111000 $
1#
1"
0!
$end
#41000
b1 *
b1 +
0(
0&
b0 %
b0 )
b0 ,
1!
#82000
0!
#123000
1!
#164000
0'
0#
0!
#205000
b10 *
b10 +
b1 %
b1 )
b1 ,
1!
#246000
0!
#287000
b11 *
b11 +
b10 %
b10 )
b10 ,
1!
#328000
0!
#369000
b100 *
b100 +
b11 %
b11 )
b11 ,
1!
#410000
0!
#451000
b101 *
b101 +
b100 %
b100 )
b100 ,
1!
#492000
0!
#533000
b110 *
b110 +
b101 %
b101 )
b101 ,
1!
#574000
0!
#615000
b111 *
b111 +
b110 %
b110 )
b110 ,
1!
#656000
0!
#697000
b1000 *
b1000 +
b111 %
b111 )
b111 ,
1!
#738000
0!
#779000
b1001 *
b1001 +
b1000 %
b1000 )
b1000 ,
1!
#820000
0!
#861000
b1010 *
b1010 +
b1001 %
b1001 )
b1001 ,
1!
#902000
0!
#943000
b1011 *
b1011 +
b1010 %
b1010 )
b1010 ,
1!
#984000
0!
#1025000
b1100 *
b1100 +
b1011 %
b1011 )
b1011 ,
1!
#1066000
0!
#1107000
b1101 *
b1101 +
b1100 %
b1100 )
b1100 ,
1!
#1148000
0!
#1189000
b1110 *
b1110 +
b1101 %
b1101 )
b1101 ,
1!
#1230000
0!
#1271000
b1111 *
b1111 +
b1110 %
b1110 )
b1110 ,
1!
#1312000
0!
#1353000
b10000 *
b10000 +
b1111 %
b1111 )
b1111 ,
1!
#1394000
0!
#1435000
b10001 *
b10001 +
b10000 %
b10000 )
b10000 ,
1!
#1476000
0!
#1517000
b10010 *
b10010 +
b10001 %
b10001 )
b10001 ,
1!
#1558000
0!
#1599000
b10011 *
b10011 +
b10010 %
b10010 )
b10010 ,
1!
#1640000
0!
#1681000
b10100 *
b10100 +
b10011 %
b10011 )
b10011 ,
1!
#1722000
0!
#1763000
b10101 *
b10101 +
b10100 %
b10100 )
b10100 ,
1!
#1804000
0!
#1845000
b10110 *
b10110 +
b10101 %
b10101 )
b10101 ,
1!
#1886000
0!
#1927000
b10111 *
b10111 +
b10110 %
b10110 )
b10110 ,
1!
#1968000
0!
#2009000
b11000 *
b11000 +
b10111 %
b10111 )
b10111 ,
1!
#2050000
0!
#2091000
b11001 *
b11001 +
b11000 %
b11000 )
b11000 ,
1!
#2132000
0!
#2173000
b11010 *
b11010 +
b11001 %
b11001 )
b11001 ,
1!
#2214000
0!
#2255000
b11011 *
b11011 +
b11010 %
b11010 )
b11010 ,
1!
#2296000
0!
#2337000
b11100 *
b11100 +
b11011 %
b11011 )
b11011 ,
1!
#2378000
0!
#2419000
b11101 *
b11101 +
b11100 %
b11100 )
b11100 ,
1!
#2460000
0!
#2501000
b11110 *
b11110 +
b11101 %
b11101 )
b11101 ,
1!
#2542000
0!
#2583000
b11111 *
b11111 +
b11110 %
b11110 )
b11110 ,
1!
#2624000
0!
#2665000
b100000 *
b100000 +
b11111 %
b11111 )
b11111 ,
1!
#2706000
0!
#2747000
b100001 *
b100001 +
b100000 %
b100000 )
b100000 ,
1!
#2788000
0!
#2829000
b100010 *
b100010 +
b100001 %
b100001 )
b100001 ,
1!
#2870000
0!
#2911000
b100011 *
b100011 +
b100010 %
b100010 )
b100010 ,
1!
#2952000
0!
#2993000
b100100 *
b100100 +
b100011 %
b100011 )
b100011 ,
1!
#3034000
0!
#3075000
b100101 *
b100101 +
b100100 %
b100100 )
b100100 ,
1!
#3116000
0!
#3157000
b100110 *
b100110 +
b100101 %
b100101 )
b100101 ,
1!
#3198000
0!
#3239000
b100111 *
b100111 +
b100110 %
b100110 )
b100110 ,
1!
#3280000
0!
#3321000
b101000 *
b101000 +
b100111 %
b100111 )
b100111 ,
1!
#3362000
0!
#3403000
b101001 *
b101001 +
b101000 %
b101000 )
b101000 ,
1!
#3444000
0!
#3485000
b101010 *
b101010 +
b101001 %
b101001 )
b101001 ,
1!
#3526000
0!
#3567000
b101011 *
b101011 +
b101010 %
b101010 )
b101010 ,
1!
#3608000
0!
#3649000
b101100 *
b101100 +
b101011 %
b101011 )
b101011 ,
1!
#3690000
0!
#3731000
b101101 *
b101101 +
b101100 %
b101100 )
b101100 ,
1!
#3772000
0!
#3813000
b101110 *
b101110 +
b101101 %
b101101 )
b101101 ,
1!
#3854000
0!
#3895000
b101111 *
b101111 +
b101110 %
b101110 )
b101110 ,
1!
#3936000
0!
#3977000
b110000 *
b110000 +
b101111 %
b101111 )
b101111 ,
1!
#4018000
0!
#4059000
b110001 *
b110001 +
b110000 %
b110000 )
b110000 ,
1!
#4100000
0!
#4141000
b110010 *
b110010 +
b110001 %
b110001 )
b110001 ,
1!
#4182000
0!
#4223000
b110011 *
b110011 +
b110010 %
b110010 )
b110010 ,
1!
#4264000
0!
#4305000
b110100 *
b110100 +
b110011 %
b110011 )
b110011 ,
1!
#4346000
0!
#4387000
b110101 *
b110101 +
b110100 %
b110100 )
b110100 ,
1!
#4428000
0!
#4469000
b110110 *
b110110 +
b110101 %
b110101 )
b110101 ,
1!
#4510000
0!
#4551000
b110111 *
b110111 +
b110110 %
b110110 )
b110110 ,
1!
#4592000
0!
#4633000
b111000 *
b111000 +
b110111 %
b110111 )
b110111 ,
1!
#4674000
0!
#4715000
b111001 *
b111001 +
b111000 %
b111000 )
b111000 ,
1!
#4756000
0!
#4797000
b111010 *
b111010 +
b111001 %
b111001 )
b111001 ,
1!
#4838000
0!
#4879000
b111011 *
b111011 +
b111010 %
b111010 )
b111010 ,
1!
#4920000
0!
#4961000
b111100 *
b111100 +
b111011 %
b111011 )
b111011 ,
1!
#5002000
0!
#5043000
b111101 *
b111101 +
b111100 %
b111100 )
b111100 ,
1!
#5084000
0!
#5125000
b111110 *
b111110 +
b111101 %
b111101 )
b111101 ,
1!
#5166000
0!
#5207000
b111111 *
b111111 +
b111110 %
b111110 )
b111110 ,
1!
#5248000
0!
#5289000
b1000000 *
b1000000 +
b111111 %
b111111 )
b111111 ,
1!
#5330000
0!
#5371000
b1000001 *
b1000001 +
b1000000 %
b1000000 )
b1000000 ,
1!
#5412000
0!
#5453000
b1000010 *
b1000010 +
b1000001 %
b1000001 )
b1000001 ,
1!
#5494000
0!
#5535000
b1000011 *
b1000011 +
b1000010 %
b1000010 )
b1000010 ,
1!
#5576000
0!
#5617000
b1000100 *
b1000100 +
b1000011 %
b1000011 )
b1000011 ,
1!
#5658000
0!
#5699000
b1000101 *
b1000101 +
b1000100 %
b1000100 )
b1000100 ,
1!
#5740000
0!
#5781000
b1000110 *
b1000110 +
b1000101 %
b1000101 )
b1000101 ,
1!
#5822000
0!
#5863000
b1000111 *
b1000111 +
b1000110 %
b1000110 )
b1000110 ,
1!
#5904000
0!
#5945000
b1001000 *
b1001000 +
b1000111 %
b1000111 )
b1000111 ,
1!
#5986000
0!
#6027000
b1001001 *
b1001001 +
b1001000 %
b1001000 )
b1001000 ,
1!
#6068000
0!
#6109000
b1001010 *
b1001010 +
b1001001 %
b1001001 )
b1001001 ,
1!
#6150000
0!
#6191000
b1001011 *
b1001011 +
b1001010 %
b1001010 )
b1001010 ,
1!
#6232000
0!
#6273000
b1001100 *
b1001100 +
b1001011 %
b1001011 )
b1001011 ,
1!
#6314000
0!
#6355000
b1001101 *
b1001101 +
b1001100 %
b1001100 )
b1001100 ,
1!
#6396000
0!
#6437000
b1001110 *
b1001110 +
b1001101 %
b1001101 )
b1001101 ,
1!
#6478000
0!
#6519000
b1001111 *
b1001111 +
b1001110 %
b1001110 )
b1001110 ,
1!
#6560000
0!
#6601000
b1010000 *
b1010000 +
b1001111 %
b1001111 )
b1001111 ,
1!
#6642000
0!
#6683000
b1010001 *
b1010001 +
b1010000 %
b1010000 )
b1010000 ,
1!
#6724000
0!
#6765000
b1010010 *
b1010010 +
b1010001 %
b1010001 )
b1010001 ,
1!
#6806000
0!
#6847000
b1010011 *
b1010011 +
b1010010 %
b1010010 )
b1010010 ,
1!
#6888000
0!
#6929000
b1010100 *
b1010100 +
b1010011 %
b1010011 )
b1010011 ,
1!
#6970000
0!
#7011000
b1010101 *
b1010101 +
b1010100 %
b1010100 )
b1010100 ,
1!
#7052000
0!
#7093000
b1010110 *
b1010110 +
b1010101 %
b1010101 )
b1010101 ,
1!
#7134000
0!
#7175000
b1010111 *
b1010111 +
b1010110 %
b1010110 )
b1010110 ,
1!
#7216000
0!
#7257000
b1011000 *
b1011000 +
b1010111 %
b1010111 )
b1010111 ,
1!
#7298000
0!
#7339000
b1011001 *
b1011001 +
b1011000 %
b1011000 )
b1011000 ,
1!
#7380000
0!
#7421000
b1011010 *
b1011010 +
b1011001 %
b1011001 )
b1011001 ,
1!
#7462000
0!
#7503000
b1011011 *
b1011011 +
b1011010 %
b1011010 )
b1011010 ,
1!
#7544000
0!
#7585000
b1011100 *
b1011100 +
b1011011 %
b1011011 )
b1011011 ,
1!
#7626000
0!
#7667000
b1011101 *
b1011101 +
b1011100 %
b1011100 )
b1011100 ,
1!
#7708000
0!
#7749000
b1011110 *
b1011110 +
b1011101 %
b1011101 )
b1011101 ,
1!
#7790000
0!
#7831000
b1011111 *
b1011111 +
b1011110 %
b1011110 )
b1011110 ,
1!
#7872000
0!
#7913000
b1100000 *
b1100000 +
b1011111 %
b1011111 )
b1011111 ,
1!
#7954000
0!
#7995000
b1100001 *
b1100001 +
b1100000 %
b1100000 )
b1100000 ,
1!
#8036000
0!
#8077000
b1100010 *
b1100010 +
b1100001 %
b1100001 )
b1100001 ,
1!
#8118000
0!
#8159000
b1100011 *
b1100011 +
b1100010 %
b1100010 )
b1100010 ,
1!
#8200000
0!
#8241000
b1100100 *
b1100100 +
b1100011 %
b1100011 )
b1100011 ,
1!
#8282000
0!
#8323000
b1100101 *
b1100101 +
b1100100 %
b1100100 )
b1100100 ,
1!
#8364000
0!
#8405000
b1100110 *
b1100110 +
b1100101 %
b1100101 )
b1100101 ,
1!
#8446000
0!
#8487000
b1100111 *
b1100111 +
b1100110 %
b1100110 )
b1100110 ,
1!
#8528000
0!
#8569000
b1101000 *
b1101000 +
b1100111 %
b1100111 )
b1100111 ,
1!
#8610000
0!
#8651000
b1101001 *
b1101001 +
b1101000 %
b1101000 )
b1101000 ,
1!
#8692000
0!
#8733000
b1101010 *
b1101010 +
b1101001 %
b1101001 )
b1101001 ,
1!
#8774000
0!
#8815000
b1101011 *
b1101011 +
b1101010 %
b1101010 )
b1101010 ,
1!
#8856000
0!
#8897000
b1101100 *
b1101100 +
b1101011 %
b1101011 )
b1101011 ,
1!
#8938000
0!
#8979000
b1101101 *
b1101101 +
b1101100 %
b1101100 )
b1101100 ,
1!
#9020000
0!
#9061000
b1101110 *
b1101110 +
b1101101 %
b1101101 )
b1101101 ,
1!
#9102000
0!
#9143000
b1101111 *
b1101111 +
b1101110 %
b1101110 )
b1101110 ,
1!
#9184000
0!
#9225000
b1110000 *
b1110000 +
b1101111 %
b1101111 )
b1101111 ,
1!
#9266000
0!
#9307000
b1110001 *
b1110001 +
b1110000 %
b1110000 )
b1110000 ,
1!
#9348000
0!
#9389000
b1110010 *
b1110010 +
b1110001 %
b1110001 )
b1110001 ,
1!
#9430000
0!
#9471000
b1110011 *
b1110011 +
b1110010 %
b1110010 )
b1110010 ,
1!
#9512000
0!
#9553000
b1110100 *
b1110100 +
b1110011 %
b1110011 )
b1110011 ,
1!
#9594000
0!
#9635000
b1110101 *
b1110101 +
b1110100 %
b1110100 )
b1110100 ,
1!
#9676000
0!
#9717000
b1110110 *
b1110110 +
b1110101 %
b1110101 )
b1110101 ,
1!
#9758000
0!
#9799000
b1110111 *
b1110111 +
b1110110 %
b1110110 )
b1110110 ,
1!
#9840000
0!
#9881000
b1111000 *
b1111000 +
1(
1'
1&
b1110111 %
b1110111 )
b1110111 ,
1!
#9922000
0!
#9963000
b1 *
b1 +
0(
0'
0&
b0 %
b0 )
b0 ,
1!
#10004000
0!
#10045000
b10 *
b10 +
b1 %
b1 )
b1 ,
1!
#10086000
0!
#10127000
b11 *
b11 +
b10 %
b10 )
b10 ,
1!
#10168000
0!
#10209000
b100 *
b100 +
b11 %
b11 )
b11 ,
1!
#10250000
0!
#10291000
b101 *
b101 +
b100 %
b100 )
b100 ,
1!
#10332000
0!
#10373000
b110 *
b110 +
b101 %
b101 )
b101 ,
1!
#10414000
0!
#10455000
b111 *
b111 +
b110 %
b110 )
b110 ,
1!
#10496000
0!
#10537000
b1000 *
b1000 +
b111 %
b111 )
b111 ,
1!
#10578000
0!
#10619000
b1001 *
b1001 +
b1000 %
b1000 )
b1000 ,
1!
#10660000
0!
#10701000
b1010 *
b1010 +
b1001 %
b1001 )
b1001 ,
1!
#10742000
0!
#10783000
b1011 *
b1011 +
b1010 %
b1010 )
b1010 ,
1!
#10824000
0!
#10865000
b1100 *
b1100 +
b1011 %
b1011 )
b1011 ,
1!
#10906000
0!
#10947000
b1101 *
b1101 +
b1100 %
b1100 )
b1100 ,
1!
#10988000
0!
#11029000
b1110 *
b1110 +
b1101 %
b1101 )
b1101 ,
1!
#11070000
0!
#11111000
b1111 *
b1111 +
b1110 %
b1110 )
b1110 ,
1!
#11152000
0!
#11193000
b10000 *
b10000 +
b1111 %
b1111 )
b1111 ,
1!
#11234000
0!
#11275000
b10001 *
b10001 +
b10000 %
b10000 )
b10000 ,
1!
#11316000
0!
#11357000
b10010 *
b10010 +
b10001 %
b10001 )
b10001 ,
1!
#11398000
0!
#11439000
b10011 *
b10011 +
b10010 %
b10010 )
b10010 ,
1!
#11480000
0!
#11521000
b10100 *
b10100 +
b10011 %
b10011 )
b10011 ,
1!
#11562000
0!
#11603000
b10101 *
b10101 +
b10100 %
b10100 )
b10100 ,
1!
#11644000
0!
#11685000
b10110 *
b10110 +
b10101 %
b10101 )
b10101 ,
1!
#11726000
0!
#11767000
b10111 *
b10111 +
b10110 %
b10110 )
b10110 ,
1!
#11808000
0!
#11849000
b11000 *
b11000 +
b10111 %
b10111 )
b10111 ,
1!
#11890000
0!
#11931000
b11001 *
b11001 +
b11000 %
b11000 )
b11000 ,
1!
#11972000
0!
#12013000
b11010 *
b11010 +
b11001 %
b11001 )
b11001 ,
1!
#12054000
0!
#12095000
b11011 *
b11011 +
b11010 %
b11010 )
b11010 ,
1!
#12136000
0!
#12177000
b11100 *
b11100 +
b11011 %
b11011 )
b11011 ,
1!
#12218000
0!
#12259000
b11101 *
b11101 +
b11100 %
b11100 )
b11100 ,
1!
#12300000
0!
#12341000
b11110 *
b11110 +
b11101 %
b11101 )
b11101 ,
1!
#12382000
0!
#12423000
b11111 *
b11111 +
b11110 %
b11110 )
b11110 ,
1!
#12464000
0!
#12505000
b100000 *
b100000 +
b11111 %
b11111 )
b11111 ,
1!
#12546000
0!
#12587000
b100001 *
b100001 +
b100000 %
b100000 )
b100000 ,
1!
#12628000
0!
#12669000
b100010 *
b100010 +
b100001 %
b100001 )
b100001 ,
1!
#12710000
0!
#12751000
b100011 *
b100011 +
b100010 %
b100010 )
b100010 ,
1!
#12792000
0!
#12833000
b100100 *
b100100 +
b100011 %
b100011 )
b100011 ,
1!
#12874000
0!
#12915000
b100101 *
b100101 +
b100100 %
b100100 )
b100100 ,
1!
#12956000
0!
#12997000
b100110 *
b100110 +
b100101 %
b100101 )
b100101 ,
1!
#13038000
0!
#13079000
b100111 *
b100111 +
b100110 %
b100110 )
b100110 ,
1!
#13120000
0!
#13161000
b101000 *
b101000 +
b100111 %
b100111 )
b100111 ,
1!
#13202000
0!
#13243000
b101001 *
b101001 +
b101000 %
b101000 )
b101000 ,
1!
#13284000
0!
#13325000
b101010 *
b101010 +
b101001 %
b101001 )
b101001 ,
1!
#13366000
0!
#13407000
b101011 *
b101011 +
b101010 %
b101010 )
b101010 ,
1!
#13448000
0!
#13489000
b101100 *
b101100 +
b101011 %
b101011 )
b101011 ,
1!
#13530000
0!
#13571000
b101101 *
b101101 +
b101100 %
b101100 )
b101100 ,
1!
#13612000
0!
#13653000
b101110 *
b101110 +
b101101 %
b101101 )
b101101 ,
1!
#13694000
0!
#13735000
b101111 *
b101111 +
b101110 %
b101110 )
b101110 ,
1!
#13776000
0!
#13817000
b110000 *
b110000 +
b101111 %
b101111 )
b101111 ,
1!
#13858000
0!
#13899000
b110001 *
b110001 +
b110000 %
b110000 )
b110000 ,
1!
#13940000
0!
#13981000
b110010 *
b110010 +
b110001 %
b110001 )
b110001 ,
1!
#14022000
0!
#14063000
b110011 *
b110011 +
b110010 %
b110010 )
b110010 ,
1!
#14104000
0!
#14145000
b110100 *
b110100 +
b110011 %
b110011 )
b110011 ,
1!
#14186000
0!
#14227000
b110101 *
b110101 +
b110100 %
b110100 )
b110100 ,
1!
#14268000
0!
#14309000
b110110 *
b110110 +
b110101 %
b110101 )
b110101 ,
1!
#14350000
0!
#14391000
b110111 *
b110111 +
b110110 %
b110110 )
b110110 ,
1!
#14432000
0!
#14473000
b111000 *
b111000 +
b110111 %
b110111 )
b110111 ,
1!
#14514000
0!
#14555000
b111001 *
b111001 +
b111000 %
b111000 )
b111000 ,
1!
#14596000
0!
#14637000
b111010 *
b111010 +
b111001 %
b111001 )
b111001 ,
1!
#14678000
0!
#14719000
b111011 *
b111011 +
b111010 %
b111010 )
b111010 ,
1!
#14760000
0!
#14801000
b111100 *
b111100 +
b111011 %
b111011 )
b111011 ,
1!
#14842000
0!
#14883000
b111101 *
b111101 +
b111100 %
b111100 )
b111100 ,
1!
#14924000
0!
#14965000
b111110 *
b111110 +
b111101 %
b111101 )
b111101 ,
1!
#15006000
0!
#15047000
b111111 *
b111111 +
b111110 %
b111110 )
b111110 ,
1!
#15088000
0!
#15129000
b1000000 *
b1000000 +
b111111 %
b111111 )
b111111 ,
1!
#15170000
0!
#15211000
b1000001 *
b1000001 +
b1000000 %
b1000000 )
b1000000 ,
1!
#15252000
0!
#15293000
b1000010 *
b1000010 +
b1000001 %
b1000001 )
b1000001 ,
1!
#15334000
0!
#15375000
b1000011 *
b1000011 +
b1000010 %
b1000010 )
b1000010 ,
1!
#15416000
0!
#15457000
b1000100 *
b1000100 +
b1000011 %
b1000011 )
b1000011 ,
1!
#15498000
0!
#15539000
b1000101 *
b1000101 +
b1000100 %
b1000100 )
b1000100 ,
1!
#15580000
0!
#15621000
b1000110 *
b1000110 +
b1000101 %
b1000101 )
b1000101 ,
1!
#15662000
0!
#15703000
b1000111 *
b1000111 +
b1000110 %
b1000110 )
b1000110 ,
1!
#15744000
0!
#15785000
b1001000 *
b1001000 +
b1000111 %
b1000111 )
b1000111 ,
1!
#15826000
0!
#15867000
b1001001 *
b1001001 +
b1001000 %
b1001000 )
b1001000 ,
1!
#15908000
0!
#15949000
b1001010 *
b1001010 +
b1001001 %
b1001001 )
b1001001 ,
1!
#15990000
0!
#16031000
b1001011 *
b1001011 +
b1001010 %
b1001010 )
b1001010 ,
1!
#16072000
0!
#16113000
b1001100 *
b1001100 +
b1001011 %
b1001011 )
b1001011 ,
1!
#16154000
0!
#16195000
b1001101 *
b1001101 +
b1001100 %
b1001100 )
b1001100 ,
1!
#16236000
0!
#16277000
b1001110 *
b1001110 +
b1001101 %
b1001101 )
b1001101 ,
1!
#16318000
0!
#16359000
b1001111 *
b1001111 +
b1001110 %
b1001110 )
b1001110 ,
1!
#16400000
0!
#16441000
b1010000 *
b1010000 +
b1001111 %
b1001111 )
b1001111 ,
1!
#16482000
0!
#16523000
b1010001 *
b1010001 +
b1010000 %
b1010000 )
b1010000 ,
1!
#16564000
0!
#16605000
b1010010 *
b1010010 +
b1010001 %
b1010001 )
b1010001 ,
1!
#16646000
0!
#16687000
b1010011 *
b1010011 +
b1010010 %
b1010010 )
b1010010 ,
1!
#16728000
0!
#16769000
b1010100 *
b1010100 +
b1010011 %
b1010011 )
b1010011 ,
1!
#16810000
0!
#16851000
b1010101 *
b1010101 +
b1010100 %
b1010100 )
b1010100 ,
1!
#16892000
0!
#16933000
b1010110 *
b1010110 +
b1010101 %
b1010101 )
b1010101 ,
1!
#16974000
0!
#17015000
b1010111 *
b1010111 +
b1010110 %
b1010110 )
b1010110 ,
1!
#17056000
0!
#17097000
b1011000 *
b1011000 +
b1010111 %
b1010111 )
b1010111 ,
1!
#17138000
0!
#17179000
b1011001 *
b1011001 +
b1011000 %
b1011000 )
b1011000 ,
1!
#17220000
0!
#17261000
b1011010 *
b1011010 +
b1011001 %
b1011001 )
b1011001 ,
1!
#17302000
0!
#17343000
b1011011 *
b1011011 +
b1011010 %
b1011010 )
b1011010 ,
1!
#17384000
0!
#17425000
b1011100 *
b1011100 +
b1011011 %
b1011011 )
b1011011 ,
1!
#17466000
0!
#17507000
b1011101 *
b1011101 +
b1011100 %
b1011100 )
b1011100 ,
1!
#17548000
0!
#17589000
b1011110 *
b1011110 +
b1011101 %
b1011101 )
b1011101 ,
1!
#17630000
0!
#17671000
b1011111 *
b1011111 +
b1011110 %
b1011110 )
b1011110 ,
1!
#17712000
0!
#17753000
b1100000 *
b1100000 +
b1011111 %
b1011111 )
b1011111 ,
1!
#17794000
0!
#17835000
b1100001 *
b1100001 +
b1100000 %
b1100000 )
b1100000 ,
1!
#17876000
0!
#17917000
b1100010 *
b1100010 +
b1100001 %
b1100001 )
b1100001 ,
1!
#17958000
0!
#17999000
b1100011 *
b1100011 +
b1100010 %
b1100010 )
b1100010 ,
1!
#18040000
0!
#18081000
b1100100 *
b1100100 +
b1100011 %
b1100011 )
b1100011 ,
1!
#18122000
0!
#18163000
b1100101 *
b1100101 +
b1100100 %
b1100100 )
b1100100 ,
1!
#18204000
0!
#18245000
b1100110 *
b1100110 +
b1100101 %
b1100101 )
b1100101 ,
1!
#18286000
0!
#18327000
b1100111 *
b1100111 +
b1100110 %
b1100110 )
b1100110 ,
1!
#18368000
0!
#18409000
b1101000 *
b1101000 +
b1100111 %
b1100111 )
b1100111 ,
1!
#18450000
0!
#18491000
b1101001 *
b1101001 +
b1101000 %
b1101000 )
b1101000 ,
1!
#18532000
0!
#18573000
b1101010 *
b1101010 +
b1101001 %
b1101001 )
b1101001 ,
1!
#18614000
0!
#18655000
b1101011 *
b1101011 +
b1101010 %
b1101010 )
b1101010 ,
1!
#18696000
0!
#18737000
b1101100 *
b1101100 +
b1101011 %
b1101011 )
b1101011 ,
1!
#18778000
0!
#18819000
b1101101 *
b1101101 +
b1101100 %
b1101100 )
b1101100 ,
1!
#18860000
0!
#18901000
b1101110 *
b1101110 +
b1101101 %
b1101101 )
b1101101 ,
1!
#18942000
0!
#18983000
b1101111 *
b1101111 +
b1101110 %
b1101110 )
b1101110 ,
1!
#19024000
0!
#19065000
b1110000 *
b1110000 +
b1101111 %
b1101111 )
b1101111 ,
1!
#19106000
0!
#19147000
b1110001 *
b1110001 +
b1110000 %
b1110000 )
b1110000 ,
1!
#19188000
0!
#19229000
b1110010 *
b1110010 +
b1110001 %
b1110001 )
b1110001 ,
1!
#19270000
0!
#19311000
b1110011 *
b1110011 +
b1110010 %
b1110010 )
b1110010 ,
1!
#19352000
0!
#19393000
b1110100 *
b1110100 +
b1110011 %
b1110011 )
b1110011 ,
1!
#19434000
0!
#19475000
b1110101 *
b1110101 +
b1110100 %
b1110100 )
b1110100 ,
1!
#19516000
0!
#19557000
b1110110 *
b1110110 +
b1110101 %
b1110101 )
b1110101 ,
1!
#19598000
0!
#19639000
b1110111 *
b1110111 +
b1110110 %
b1110110 )
b1110110 ,
1!
#19680000
0!
#19721000
b1111000 *
b1111000 +
1(
1'
1&
b1110111 %
b1110111 )
b1110111 ,
1!
#19762000
0!
#19803000
b1 *
b1 +
0(
0'
0&
b0 %
b0 )
b0 ,
1!
#19844000
0!
#19885000
b10 *
b10 +
b1 %
b1 )
b1 ,
1!
#19926000
0!
#19967000
b11 *
b11 +
b10 %
b10 )
b10 ,
1!
#20008000
0!
#20049000
b100 *
b100 +
b11 %
b11 )
b11 ,
1!
#20090000
0!
#20131000
b101 *
b101 +
b100 %
b100 )
b100 ,
1!
#20172000
0!
#20213000
b110 *
b110 +
b101 %
b101 )
b101 ,
1!
#20254000
0!
#20295000
b111 *
b111 +
b110 %
b110 )
b110 ,
1!
#20336000
0!
#20377000
b1000 *
b1000 +
b111 %
b111 )
b111 ,
1!
#20418000
0!
#20459000
b1001 *
b1001 +
b1000 %
b1000 )
b1000 ,
1!
#20500000
0!
#20541000
b1010 *
b1010 +
b1001 %
b1001 )
b1001 ,
1!
#20582000
0!
#20623000
b1011 *
b1011 +
b1010 %
b1010 )
b1010 ,
1!
#20664000
0!
#20705000
b1100 *
b1100 +
b1011 %
b1011 )
b1011 ,
1!
#20746000
0!
#20787000
b1101 *
b1101 +
b1100 %
b1100 )
b1100 ,
1!
#20828000
0!
#20869000
b1110 *
b1110 +
b1101 %
b1101 )
b1101 ,
1!
#20910000
0!
#20951000
b1111 *
b1111 +
b1110 %
b1110 )
b1110 ,
1!
#20992000
0!
#21033000
b10000 *
b10000 +
b1111 %
b1111 )
b1111 ,
1!
#21074000
0!
#21115000
b10001 *
b10001 +
b10000 %
b10000 )
b10000 ,
1!
#21156000
0!
#21197000
b10010 *
b10010 +
b10001 %
b10001 )
b10001 ,
1!
#21238000
0!
#21279000
b10011 *
b10011 +
b10010 %
b10010 )
b10010 ,
1!
#21320000
0!
#21361000
b10100 *
b10100 +
b10011 %
b10011 )
b10011 ,
1!
#21402000
0!
#21443000
b10101 *
b10101 +
b10100 %
b10100 )
b10100 ,
1!
#21484000
0!
#21525000
b10110 *
b10110 +
b10101 %
b10101 )
b10101 ,
1!
#21566000
0!
#21607000
b10111 *
b10111 +
b10110 %
b10110 )
b10110 ,
1!
#21648000
0!
#21689000
b11000 *
b11000 +
b10111 %
b10111 )
b10111 ,
1!
#21730000
0!
#21771000
b11001 *
b11001 +
b11000 %
b11000 )
b11000 ,
1!
#21812000
0!
#21853000
b11010 *
b11010 +
b11001 %
b11001 )
b11001 ,
1!
#21894000
0!
#21935000
b11011 *
b11011 +
b11010 %
b11010 )
b11010 ,
1!
#21976000
0!
#22017000
b11100 *
b11100 +
b11011 %
b11011 )
b11011 ,
1!
#22058000
0!
#22099000
b11101 *
b11101 +
b11100 %
b11100 )
b11100 ,
1!
#22140000
0!
#22181000
b11110 *
b11110 +
b11101 %
b11101 )
b11101 ,
1!
#22222000
0!
#22263000
b11111 *
b11111 +
b11110 %
b11110 )
b11110 ,
1!
#22304000
0!
#22345000
b100000 *
b100000 +
b11111 %
b11111 )
b11111 ,
1!
#22386000
0!
#22427000
b100001 *
b100001 +
b100000 %
b100000 )
b100000 ,
1!
#22468000
0!
#22509000
b100010 *
b100010 +
b100001 %
b100001 )
b100001 ,
1!
#22550000
0!
#22591000
b100011 *
b100011 +
b100010 %
b100010 )
b100010 ,
1!
#22632000
0!
#22673000
b100100 *
b100100 +
b100011 %
b100011 )
b100011 ,
1!
#22714000
0!
#22755000
b100101 *
b100101 +
b100100 %
b100100 )
b100100 ,
1!
#22796000
0!
#22837000
b100110 *
b100110 +
b100101 %
b100101 )
b100101 ,
1!
#22878000
0!
#22919000
b100111 *
b100111 +
b100110 %
b100110 )
b100110 ,
1!
#22960000
0!
#23001000
b101000 *
b101000 +
b100111 %
b100111 )
b100111 ,
1!
#23042000
0!
#23083000
b101001 *
b101001 +
b101000 %
b101000 )
b101000 ,
1!
#23124000
0!
#23165000
b101010 *
b101010 +
b101001 %
b101001 )
b101001 ,
1!
#23206000
0!
#23247000
b101011 *
b101011 +
b101010 %
b101010 )
b101010 ,
1!
#23288000
0!
#23329000
b101100 *
b101100 +
b101011 %
b101011 )
b101011 ,
1!
#23370000
0!
#23411000
b101101 *
b101101 +
b101100 %
b101100 )
b101100 ,
1!
#23452000
0!
#23493000
b101110 *
b101110 +
b101101 %
b101101 )
b101101 ,
1!
#23534000
0!
#23575000
b101111 *
b101111 +
b101110 %
b101110 )
b101110 ,
1!
#23616000
0!
#23657000
b110000 *
b110000 +
b101111 %
b101111 )
b101111 ,
1!
#23698000
0!
#23739000
b110001 *
b110001 +
b110000 %
b110000 )
b110000 ,
1!
#23780000
0!
#23821000
b110010 *
b110010 +
b110001 %
b110001 )
b110001 ,
1!
#23862000
0!
#23903000
b110011 *
b110011 +
b110010 %
b110010 )
b110010 ,
1!
#23944000
0!
#23985000
b110100 *
b110100 +
b110011 %
b110011 )
b110011 ,
1!
#24026000
0!
#24067000
b110101 *
b110101 +
b110100 %
b110100 )
b110100 ,
1!
#24108000
0!
#24149000
b110110 *
b110110 +
b110101 %
b110101 )
b110101 ,
1!
#24190000
0!
#24231000
b110111 *
b110111 +
b110110 %
b110110 )
b110110 ,
1!
#24272000
0!
#24313000
b111000 *
b111000 +
b110111 %
b110111 )
b110111 ,
1!
#24354000
0!
#24395000
b111001 *
b111001 +
b111000 %
b111000 )
b111000 ,
1!
#24436000
0!
#24477000
b111010 *
b111010 +
b111001 %
b111001 )
b111001 ,
1!
