01_game_of_life/conway_cell.vcd
$date
	Mon Oct  4 18:31:57 2021
$end
$version
	Icarus Verilog
$end
$timescale
	1ps
$end
$scope module test_conway_cell $end
$scope module UUT $end
$var wire 1 ! clk $end
$var wire 1 " ena $end
$var wire 8 # neighbors [7:0] $end
$var wire 1 $ rst $end
$var wire 1 % state_0 $end
$var wire 4 & living_neighbors [3:0] $end
$var reg 1 ' state_d $end
$var reg 1 ( state_q $end
$var reg 1 ) stay_alive $end
$scope module living $end
$var wire 1 * gnd $end
$var wire 8 + in [7:0] $end
$var wire 3 , sum1 [2:0] $end
$var wire 3 - sum0 [2:0] $end
$var wire 4 . num [3:0] $end
$var wire 2 / count3 [1:0] $end
$var wire 2 0 count2 [1:0] $end
$var wire 2 1 count1 [1:0] $end
$var wire 2 2 count0 [1:0] $end
$scope module adder0 $end
$var wire 2 3 a [1:0] $end
$var wire 2 4 b [1:0] $end
$var wire 2 5 sum [1:0] $end
$var wire 1 6 carry0 $end
$var wire 1 7 Cout $end
$scope module adder0 $end
$var wire 1 8 Cin $end
$var wire 1 9 a $end
$var wire 1 : b $end
$var reg 1 6 Cout $end
$var reg 1 ; p $end
$var reg 1 < q $end
$var reg 1 = sum $end
$upscope $end
$scope module adder1 $end
$var wire 1 6 Cin $end
$var wire 1 > a $end
$var wire 1 ? b $end
$var reg 1 7 Cout $end
$var reg 1 @ p $end
$var reg 1 A q $end
$var reg 1 B sum $end
$upscope $end
$upscope $end
$scope module adder1 $end
$var wire 2 C a [1:0] $end
$var wire 2 D b [1:0] $end
$var wire 2 E sum [1:0] $end
$var wire 1 F carry0 $end
$var wire 1 G Cout $end
$scope module adder0 $end
$var wire 1 H Cin $end
$var wire 1 I a $end
$var wire 1 J b $end
$var reg 1 F Cout $end
$var reg 1 K p $end
$var reg 1 L q $end
$var reg 1 M sum $end
$upscope $end
$scope module adder1 $end
$var wire 1 F Cin $end
$var wire 1 N a $end
$var wire 1 O b $end
$var reg 1 G Cout $end
$var reg 1 P p $end
$var reg 1 Q q $end
$var reg 1 R sum $end
$upscope $end
$upscope $end
$scope module counter0 $end
$var wire 1 * Cin $end
$var wire 1 S a $end
$var wire 1 T b $end
$var reg 1 U Cout $end
$var reg 1 V p $end
$var reg 1 W q $end
$var reg 1 X sum $end
$upscope $end
$scope module counter1 $end
$var wire 1 * Cin $end
$var wire 1 Y a $end
$var wire 1 Z b $end
$var reg 1 [ Cout $end
$var reg 1 \ p $end
$var reg 1 ] q $end
$var reg 1 ^ sum $end
$upscope $end
$scope module counter2 $end
$var wire 1 * Cin $end
$var wire 1 _ a $end
$var wire 1 ` b $end
$var reg 1 a Cout $end
$var reg 1 b p $end
$var reg 1 c q $end
$var reg 1 d sum $end
$upscope $end
$scope module counter3 $end
$var wire 1 * Cin $end
$var wire 1 e a $end
$var wire 1 f b $end
$var reg 1 g Cout $end
$var reg 1 h p $end
$var reg 1 i q $end
$var reg 1 j sum $end
$upscope $end
$scope module total $end
$var wire 3 k a [2:0] $end
$var wire 3 l b [2:0] $end
$var wire 1 m gnd $end
$var wire 3 n sum [2:0] $end
$var wire 1 o carry1 $end
$var wire 1 p carry0 $end
$var wire 1 q Cout $end
$scope module adder0 $end
$var wire 1 m Cin $end
$var wire 1 r a $end
$var wire 1 s b $end
$var reg 1 p Cout $end
$var reg 1 t p $end
$var reg 1 u q $end
$var reg 1 v sum $end
$upscope $end
$scope module adder1 $end
$var wire 1 p Cin $end
$var wire 1 w a $end
$var wire 1 x b $end
$var reg 1 o Cout $end
$var reg 1 y p $end
$var reg 1 z q $end
$var reg 1 { sum $end
$upscope $end
$scope module adder2 $end
$var wire 1 o Cin $end
$var wire 1 | a $end
$var wire 1 } b $end
$var reg 1 q Cout $end
$var reg 1 ~ p $end
$var reg 1 !" q $end
$var reg 1 "" sum $end
$upscope $end
$upscope $end
$upscope $end
$upscope $end
$upscope $end
$enddefinitions $end
#0
$dumpvars
x""
x!"
x~
x}
x|
x{
xz
xy
xx
xw
xv
xu
xt
xs
xr
xq
xp
xo
bx n
0m
bx l
bx k
xj
xi
xh
xg
xf
xe
xd
xc
xb
xa
x`
x_
x^
x]
x\
x[
xZ
xY
xX
xW
xV
xU
xT
xS
xR
xQ
xP
xO
xN
xM
xL
xK
xJ
xI
0H
xG
xF
bx E
bx D
bx C
xB
xA
x@
x?
x>
x=
x<
x;
x:
x9
08
x7
x6
bx 5
bx 4
bx 3
bx 2
bx 1
bx 0
bx /
bx .
bx -
bx ,
bx +
0*
x)
x(
x'
bx &
0%
1$
bx #
1"
0!
$end
#5000
0)
0(
1!
#10000
0!
#15000
0$
1!
#20000
0'
0q
0""
0!"
0~
0o
0{
0z
0y
0p
b0 &
b0 .
b0 n
0v
0u
0t
0|
0w
0r
0}
0x
0s
07
0B
0A
0@
06
b0 -
b0 k
b0 5
0=
0<
0;
0G
0R
0Q
0P
0F
b0 ,
b0 l
b0 E
0M
0L
0K
0>
09
0?
0:
0N
0I
0O
0J
0U
b0 2
b0 3
0X
0W
0V
0[
b0 1
b0 4
0^
0]
0\
0a
b0 0
b0 C
0d
0c
0b
0g
b0 /
b0 D
0j
0i
0h
0S
0T
0Y
0Z
0_
0`
0e
0f
b0 #
b0 +
0!
#25000
1!
#30000
b1 &
b1 .
b1 n
1v
1t
1r
b1 -
b1 k
b1 5
1=
1;
19
b1 2
b1 3
1X
1V
1S
b1 #
b1 +
0!
#35000
1!
#40000
0S
1T
b10 #
b10 +
0!
#45000
1!
#50000
1{
1y
b10 &
b10 .
b10 n
0v
0t
1w
0r
1B
1@
b10 -
b10 k
b10 5
0=
0;
1>
09
1U
b10 2
b10 3
0X
1W
0V
1S
b11 #
b11 +
0!
#55000
1!
#60000
0{
0y
b1 &
b1 .
b1 n
1v
1t
0w
1r
0B
0@
b1 -
b1 k
b1 5
1=
1;
0>
1:
b0 2
b0 3
0U
0W
b1 1
b1 4
1^
1\
0S
0T
1Y
b100 #
b100 +
0!
#65000
1!
#70000
1{
1y
1w
b10 &
b10 .
b10 n
0v
0t
1B
0r
16
b10 -
b10 k
b10 5
0=
1<
0;
19
b1 2
b1 3
1X
1V
1S
b101 #
b101 +
0!
#75000
1!
#80000
0S
1T
b110 #
b110 +
0!
#85000
1!
#90000
1'
b11 &
b11 .
b11 n
1v
1t
1r
1@
06
b11 -
b11 k
b11 5
1=
0<
1;
1>
09
1U
b10 2
b10 3
0X
1W
0V
1S
b111 #
b111 +
0!
#95000
1(
1!
#100000
0'
b1 &
b1 .
b1 n
0{
0y
0w
b1 -
b1 k
b1 5
0B
0@
0>
b0 2
b0 3
0U
0W
0S
0T
0Y
1Z
b1000 #
b1000 +
0!
#105000
0(
1!
#110000
1{
1y
1w
b10 &
b10 .
b10 n
0v
0t
1B
0r
16
b10 -
b10 k
b10 5
0=
1<
0;
19
b1 2
b1 3
1X
1V
1S
b1001 #
b1001 +
0!
#115000
1!
#120000
0S
1T
b1010 #
b1010 +
0!
#125000
1!
#130000
1'
b11 &
b11 .
b11 n
1v
1t
1r
1@
06
b11 -
b11 k
b11 5
1=
0<
1;
1>
09
1U
b10 2
b10 3
0X
1W
0V
1S
b1011 #
b1011 +
0!
#135000
1(
1!
#140000
1)
b10 &
b10 .
b10 n
0v
0t
0r
b10 -
b10 k
b10 5
0=
0;
0>
1?
0:
b0 2
b0 3
0U
0W
1[
b10 1
b10 4
0^
1]
0\
0S
0T
1Y
b1100 #
b1100 +
0!
#145000
1!
#150000
0)
b11 &
b11 .
b11 n
1v
1t
1r
b11 -
b11 k
b11 5
1=
1;
19
b1 2
b1 3
1X
1V
1S
b1101 #
b1101 +
0!
#155000
1!
#160000
0S
1T
b1110 #
b1110 +
0!
#165000
1!
#170000
0'
1""
1~
0{
0y
b100 &
b100 .
b100 n
0v
0t
1|
0w
0r
17
0B
1A
0@
b100 -
b100 k
b0 5
0=
0;
1>
09
1U
b10 2
b10 3
0X
1W
0V
1S
b1111 #
b1111 +
0!
#175000
0(
1!
#180000
0""
0~
b1 &
b1 .
b1 n
1v
1t
0|
1s
b0 -
b0 k
07
0A
b1 ,
b1 l
b1 E
1M
1K
0>
0?
1I
b0 2
b0 3
0U
0W
b0 1
b0 4
0[
0]
b1 0
b1 C
1d
1b
0S
0T
0Y
0Z
1_
b10000 #
b10000 +
0!
#185000
1!
#190000
1{
1p
b10 &
b10 .
b10 n
0v
1u
0t
1r
b1 -
b1 k
b1 5
1=
1;
19
b1 2
b1 3
1X
1V
1S
b10001 #
b10001 +
0!
#195000
1!
#200000
0S
1T
b10010 #
b10010 +
0!
#205000
1!
#210000
1'
1y
0p
b11 &
b11 .
b11 n
1v
0u
1t
1w
0r
1B
1@
b10 -
b10 k
b10 5
0=
0;
1>
09
1U
b10 2
b10 3
0X
1W
0V
1S
b10011 #
b10011 +
0!
#215000
1(
1!
#220000
1)
0y
1p
b10 &
b10 .
b10 n
0v
1u
0t
0w
1r
0B
0@
b1 -
b1 k
b1 5
1=
1;
0>
1:
b0 2
b0 3
0U
0W
b1 1
b1 4
1^
1\
0S
0T
1Y
b10100 #
b10100 +
0!
#225000
1!
#230000
1y
0)
1w
0p
b11 &
b11 .
b11 n
1v
0u
1t
1B
0r
16
b10 -
b10 k
b10 5
0=
1<
0;
19
b1 2
b1 3
1X
1V
1S
b10101 #
b10101 +
0!
#235000
1!
#240000
0S
1T
b10110 #
b10110 +
0!
#245000
1!
#250000
1""
0'
1o
0{
0)
1p
b100 &
b100 .
b100 n
0v
1u
0t
1r
1@
06
b11 -
b11 k
b11 5
1=
0<
1;
1>
09
1U
b10 2
b10 3
0X
1W
0V
1S
b10111 #
b10111 +
0!
#255000
0(
1!
#260000
0""
0o
b10 &
b10 .
b10 n
1{
0y
0w
b1 -
b1 k
b1 5
0B
0@
0>
b0 2
b0 3
0U
0W
0S
0T
0Y
1Z
b11000 #
b11000 +
0!
#265000
1!
#270000
1y
1'
1w
0p
b11 &
b11 .
b11 n
1v
0u
1t
1B
0r
16
b10 -
b10 k
b10 5
0=
1<
0;
19
b1 2
b1 3
1X
1V
1S
b11001 #
b11001 +
0!
#275000
1(
1!
#280000
0S
1T
b11010 #
b11010 +
0!
#285000
1!
#290000
1""
0'
1o
0{
0)
1p
b100 &
b100 .
b100 n
0v
1u
0t
1r
1@
06
b11 -
b11 k
b11 5
1=
0<
1;
1>
09
1U
b10 2
b10 3
0X
1W
0V
1S
b11011 #
b11011 +
0!
#295000
0(
1!
#300000
1'
0""
0o
1{
0p
b11 &
b11 .
b11 n
1v
0u
1t
0r
b10 -
b10 k
b10 5
0=
0;
0>
1?
0:
b0 2
b0 3
0U
0W
1[
b10 1
b10 4
0^
1]
0\
0S
0T
1Y
b11100 #
b11100 +
0!
#305000
1(
1!
#310000
1""
0'
1o
0{
0)
1p
b100 &
b100 .
b100 n
0v
1u
0t
1r
b11 -
b11 k
b11 5
1=
1;
19
b1 2
b1 3
1X
1V
1S
b11101 #
b11101 +
0!
#315000
0(
1!
#320000
0S
1T
b11110 #
b11110 +
0!
#325000
1!
#330000
1~
0o
0y
0p
b101 &
b101 .
b101 n
1v
0u
1t
1|
0w
0r
17
0B
1A
0@
b100 -
b100 k
b0 5
0=
0;
1>
09
1U
b10 2
b10 3
0X
1W
0V
1S
b11111 #
b11111 +
0!
#335000
1!
#340000
b1 &
b1 .
b1 n
0""
0~
0|
b0 -
b0 k
07
0A
0>
0?
b0 2
b0 3
0U
0W
b0 1
b0 4
0[
0]
0S
0T
0Y
0Z
0_
1`
b100000 #
b100000 +
0!
#345000
1!
#350000
1{
1p
b10 &
b10 .
b10 n
0v
1u
0t
1r
b1 -
b1 k
b1 5
1=
1;
19
b1 2
b1 3
1X
1V
1S
b100001 #
b100001 +
0!
#355000
1!
#360000
0S
1T
b100010 #
b100010 +
0!
#365000
1!
#370000
1'
1y
0p
b11 &
b11 .
b11 n
1v
0u
1t
1w
0r
1B
1@
b10 -
b10 k
b10 5
0=
0;
1>
09
1U
b10 2
b10 3
0X
1W
0V
1S
b100011 #
b100011 +
0!
#375000
1(
1!
#380000
1)
0y
1p
b10 &
b10 .
b10 n
0v
1u
0t
0w
1r
0B
0@
b1 -
b1 k
b1 5
1=
1;
0>
1:
b0 2
b0 3
0U
0W
b1 1
b1 4
1^
1\
0S
0T
1Y
b100100 #
b100100 +
0!
#385000
1!
#390000
1y
0)
1w
0p
b11 &
b11 .
b11 n
1v
0u
1t
1B
0r
16
b10 -
b10 k
b10 5
0=
1<
0;
19
b1 2
b1 3
1X
1V
1S
b100101 #
b100101 +
0!
#395000
1!
#400000
0S
1T
b100110 #
b100110 +
0!
#405000
1!
#410000
1""
0'
1o
0{
0)
1p
b100 &
b100 .
b100 n
0v
1u
0t
1r
1@
06
b11 -
b11 k
b11 5
1=
0<
1;
1>
09
1U
b10 2
b10 3
0X
1W
0V
1S
b100111 #
b100111 +
0!
#415000
0(
1!
#420000
0""
0o
b10 &
b10 .
b10 n
1{
0y
0w
b1 -
b1 k
b1 5
0B
0@
0>
b0 2
b0 3
0U
0W
0S
0T
0Y
1Z
b101000 #
b101000 +
0!
#425000
1!
#430000
1y
1'
1w
0p
b11 &
b11 .
b11 n
1v
0u
1t
1B
0r
16
b10 -
b10 k
b10 5
0=
1<
0;
19
b1 2
b1 3
1X
1V
1S
b101001 #
b101001 +
0!
#435000
1(
1!
#440000
0S
1T
b101010 #
b101010 +
0!
#445000
1!
#450000
1""
0'
1o
0{
0)
1p
b100 &
b100 .
b100 n
0v
1u
0t
1r
1@
06
b11 -
b11 k
b11 5
1=
0<
1;
1>
09
1U
b10 2
b10 3
0X
1W
0V
1S
b101011 #
b101011 +
0!
#455000
0(
1!
#460000
1'
0""
0o
1{
0p
b11 &
b11 .
b11 n
1v
0u
1t
0r
b10 -
b10 k
b10 5
0=
0;
0>
1?
0:
b0 2
b0 3
0U
0W
1[
b10 1
b10 4
0^
1]
0\
0S
0T
1Y
b101100 #
b101100 +
0!
#465000
1(
1!
#470000
1""
0'
1o
0{
0)
1p
b100 &
b100 .
b100 n
0v
1u
0t
1r
b11 -
b11 k
b11 5
1=
1;
19
b1 2
b1 3
1X
1V
1S
b101101 #
b101101 +
0!
#475000
0(
1!
#480000
0S
1T
b101110 #
b101110 +
0!
#485000
1!
#490000
1~
0o
0y
0p
b101 &
b101 .
b101 n
1v
0u
1t
1|
0w
0r
17
0B
1A
0@
b100 -
b100 k
b0 5
0=
0;
1>
09
1U
b10 2
b10 3
0X
1W
0V
1S
b101111 #
b101111 +
0!
#495000
1!
#500000
0""
0~
1{
1y
b10 &
b10 .
b10 n
0v
0t
0|
1x
0s
b0 -
b0 k
07
0A
1R
1P
b10 ,
b10 l
b10 E
0M
0K
0>
0?
1N
0I
b0 2
b0 3
0U
0W
b0 1
b0 4
0[
0]
1a
b10 0
b10 C
0d
1c
0b
0S
0T
0Y
0Z
1_
b110000 #
b110000 +
0!
#505000
1!
#510000
1'
b11 &
b11 .
b11 n
1v
1t
1r
b1 -
b1 k
b1 5
1=
1;
19
b1 2
b1 3
1X
1V
1S
b110001 #
b110001 +
0!
#515000
1(
1!
#520000
0S
1T
b110010 #
b110010 +
0!
#525000
1!
#530000
1""
0'
1o
0{
1z
0y
b100 &
b100 .
b100 n
0v
0t
1w
0r
1B
1@
b10 -
b10 k
b10 5
0=
0;
1>
09
1U
b10 2
b10 3
0X
1W
0V
1S
b110011 #
b110011 +
0!
#535000
0(
1!
#540000
1'
0""
0o
1{
0z
1y
b11 &
b11 .
b11 n
1v
1t
0w
1r
0B
0@
b1 -
b1 k
b1 5
1=
1;
0>
1:
b0 2
b0 3
0U
0W
b1 1
b1 4
1^
1\
0S
0T
1Y
b110100 #
b110100 +
0!
#545000
1(
1!
#550000
1""
0'
1o
0{
1z
0y
0)
1w
b100 &
b100 .
b100 n
0v
0t
1B
0r
16
b10 -
b10 k
b10 5
0=
1<
0;
19
b1 2
b1 3
1X
1V
1S
b110101 #
b110101 +
0!
#555000
0(
1!
#560000
0S
1T
b110110 #
b110110 +
0!
#565000
1!
#570000
b101 &
b101 .
b101 n
1v
1t
1r
1@
06
b11 -
b11 k
b11 5
1=
0<
1;
1>
09
1U
b10 2
b10 3
0X
1W
0V
1S
b110111 #
b110111 +
0!
#575000
1!
#580000
1'
0""
0o
b11 &
b11 .
b11 n
1{
0z
1y
0w
b1 -
b1 k
b1 5
0B
0@
0>
b0 2
b0 3
0U
0W
0S
0T
0Y
1Z
b111000 #
b111000 +
0!
#585000
1(
1!
#590000
1""
0'
1o
0{
1z
0y
0)
1w
b100 &
b100 .
b100 n
0v
0t
1B
0r
16
b10 -
b10 k
b10 5
0=
1<
0;
19
b1 2
b1 3
1X
1V
1S
b111001 #
b111001 +
0!
#595000
0(
1!
#600000
0S
1T
b111010 #
b111010 +
0!
#605000
1!
#610000
b101 &
b101 .
b101 n
1v
1t
1r
1@
06
b11 -
b11 k
b11 5
1=
0<
1;
1>
09
1U
b10 2
b10 3
0X
1W
0V
1S
b111011 #
b111011 +
0!
#615000
1!
#620000
b100 &
b100 .
b100 n
0v
0t
0r
b10 -
b10 k
b10 5
0=
0;
0>
1?
0:
b0 2
b0 3
0U
0W
1[
b10 1
b10 4
0^
1]
0\
0S
0T
1Y
b111100 #
b111100 +
0!
#625000
1!
#630000
b101 &
b101 .
b101 n
1v
1t
1r
b11 -
b11 k
b11 5
1=
1;
19
b1 2
b1 3
1X
1V
1S
b111101 #
b111101 +
0!
#635000
1!
#640000
0S
1T
b111110 #
b111110 +
0!
#645000
1!
#650000
1~
0o
1{
0z
1y
b110 &
b110 .
b110 n
0v
0t
1|
0w
0r
17
0B
1A
0@
b100 -
b100 k
b0 5
0=
0;
1>
09
1U
b10 2
b10 3
0X
1W
0V
1S
b111111 #
b111111 +
0!
#655000
1!
#660000
0""
0~
0{
0y
b1 &
b1 .
b1 n
1v
1t
0|
0x
1s
b0 -
b0 k
07
0A
0R
0P
b1 ,
b1 l
b1 E
1M
1K
0>
0?
0N
1J
b0 2
b0 3
0U
0W
b0 1
b0 4
0[
0]
b0 0
b0 C
0a
0c
b1 /
b1 D
1j
1h
0S
0T
0Y
0Z
0_
0`
1e
b1000000 #
b1000000 +
0!
#665000
1!
#670000
1{
1p
b10 &
b10 .
b10 n
0v
1u
0t
1r
b1 -
b1 k
b1 5
1=
1;
19
b1 2
b1 3
1X
1V
1S
b1000001 #
b1000001 +
0!
#675000
1!
#680000
0S
1T
b1000010 #
b1000010 +
0!
#685000
1!
#690000
1'
1y
0p
b11 &
b11 .
b11 n
1v
0u
1t
1w
0r
1B
1@
b10 -
b10 k
b10 5
0=
0;
1>
09
1U
b10 2
b10 3
0X
1W
0V
1S
b1000011 #
b1000011 +
0!
#695000
1(
1!
#700000
1)
0y
1p
b10 &
b10 .
b10 n
0v
1u
0t
0w
1r
0B
0@
b1 -
b1 k
b1 5
1=
1;
0>
1:
b0 2
b0 3
0U
0W
b1 1
b1 4
1^
1\
0S
0T
1Y
b1000100 #
b1000100 +
0!
#705000
1!
#710000
1y
0)
1w
0p
b11 &
b11 .
b11 n
1v
0u
1t
1B
0r
16
b10 -
b10 k
b10 5
0=
1<
0;
19
b1 2
b1 3
1X
1V
1S
b1000101 #
b1000101 +
0!
#715000
1!
#720000
0S
1T
b1000110 #
b1000110 +
0!
#725000
1!
#730000
1""
0'
1o
0{
0)
1p
b100 &
b100 .
b100 n
0v
1u
0t
1r
1@
06
b11 -
b11 k
b11 5
1=
0<
1;
1>
09
1U
b10 2
b10 3
0X
1W
0V
1S
b1000111 #
b1000111 +
0!
#735000
0(
1!
#740000
0""
0o
b10 &
b10 .
b10 n
1{
0y
0w
b1 -
b1 k
b1 5
0B
0@
0>
b0 2
b0 3
0U
0W
0S
0T
0Y
1Z
b1001000 #
b1001000 +
0!
#745000
1!
#750000
1y
1'
1w
0p
b11 &
b11 .
b11 n
1v
0u
1t
1B
0r
16
b10 -
b10 k
b10 5
0=
1<
0;
19
b1 2
b1 3
1X
1V
1S
b1001001 #
b1001001 +
0!
#755000
1(
1!
#760000
0S
1T
b1001010 #
b1001010 +
0!
#765000
1!
#770000
1""
0'
1o
0{
0)
1p
b100 &
b100 .
b100 n
0v
1u
0t
1r
1@
06
b11 -
b11 k
b11 5
1=
0<
1;
1>
09
1U
b10 2
b10 3
0X
1W
0V
1S
b1001011 #
b1001011 +
0!
#775000
0(
1!
#780000
1'
0""
0o
1{
0p
b11 &
b11 .
b11 n
1v
0u
1t
0r
b10 -
b10 k
b10 5
0=
0;
0>
1?
0:
b0 2
b0 3
0U
0W
1[
b10 1
b10 4
0^
1]
0\
0S
0T
1Y
b1001100 #
b1001100 +
0!
#785000
1(
1!
#790000
1""
0'
1o
0{
0)
1p
b100 &
b100 .
b100 n
0v
1u
0t
1r
b11 -
b11 k
b11 5
1=
1;
19
b1 2
b1 3
1X
1V
1S
b1001101 #
b1001101 +
0!
#795000
0(
1!
#800000
0S
1T
b1001110 #
b1001110 +
0!
#805000
1!
#810000
1~
0o
0y
0p
b101 &
b101 .
b101 n
1v
0u
1t
1|
0w
0r
17
0B
1A
0@
b100 -
b100 k
b0 5
0=
0;
1>
09
1U
b10 2
b10 3
0X
1W
0V
1S
b1001111 #
b1001111 +
0!
#815000
1!
#820000
1{
1y
0""
0~
1x
b10 &
b10 .
b10 n
0v
0t
0|
1R
0s
b0 -
b0 k
07
0A
1F
b10 ,
b10 l
b10 E
0M
1L
0K
0>
0?
1I
b0 2
b0 3
0U
0W
b0 1
b0 4
0[
0]
b1 0
b1 C
1d
1b
0S
0T
0Y
0Z
1_
b1010000 #
b1010000 +
0!
#825000
1!
#830000
1'
b11 &
b11 .
b11 n
1v
1t
1r
b1 -
b1 k
b1 5
1=
1;
19
b1 2
b1 3
1X
1V
1S
b1010001 #
b1010001 +
0!
#835000
1(
1!
#840000
0S
1T
b1010010 #
b1010010 +
0!
#845000
1!
#850000
1""
0'
1o
0{
1z
0y
b100 &
b100 .
b100 n
0v
0t
1w
0r
1B
1@
b10 -
b10 k
b10 5
0=
0;
1>
09
1U
b10 2
b10 3
0X
1W
0V
1S
b1010011 #
b1010011 +
0!
#855000
0(
1!
#860000
1'
0""
0o
1{
0z
1y
b11 &
b11 .
b11 n
1v
1t
0w
1r
0B
0@
b1 -
b1 k
b1 5
1=
1;
0>
1:
b0 2
b0 3
0U
0W
b1 1
b1 4
1^
1\
0S
0T
1Y
b1010100 #
b1010100 +
0!
#865000
1(
1!
#870000
1""
0'
1o
0{
1z
0y
0)
1w
b100 &
b100 .
b100 n
0v
0t
1B
0r
16
b10 -
b10 k
b10 5
0=
1<
0;
19
b1 2
b1 3
1X
1V
1S
b1010101 #
b1010101 +
0!
#875000
0(
1!
#880000
0S
1T
b1010110 #
b1010110 +
0!
#885000
1!
#890000
b101 &
b101 .
b101 n
1v
1t
1r
1@
06
b11 -
b11 k
b11 5
1=
0<
1;
1>
09
1U
b10 2
b10 3
0X
1W
0V
1S
b1010111 #
b1010111 +
0!
#895000
1!
#900000
1'
0""
0o
b11 &
b11 .
b11 n
1{
0z
1y
0w
b1 -
b1 k
b1 5
0B
0@
0>
b0 2
b0 3
0U
0W
0S
0T
0Y
1Z
b1011000 #
b1011000 +
0!
#905000
1(
1!
#910000
1""
0'
1o
0{
1z
0y
0)
1w
b100 &
b100 .
b100 n
0v
0t
1B
0r
16
b10 -
b10 k
b10 5
0=
1<
0;
19
b1 2
b1 3
1X
1V
1S
b1011001 #
b1011001 +
0!
#915000
0(
1!
#920000
0S
1T
b1011010 #
b1011010 +
0!
#925000
1!
#930000
b101 &
b101 .
b101 n
1v
1t
1r
1@
06
b11 -
b11 k
b11 5
1=
0<
1;
1>
09
1U
b10 2
b10 3
0X
1W
0V
1S
b1011011 #
b1011011 +
0!
#935000
1!
#940000
b100 &
b100 .
b100 n
0v
0t
0r
b10 -
b10 k
b10 5
0=
0;
0>
1?
0:
b0 2
b0 3
0U
0W
1[
b10 1
b10 4
0^
1]
0\
0S
0T
1Y
b1011100 #
b1011100 +
0!
#945000
1!
#950000
b101 &
b101 .
b101 n
1v
1t
1r
b11 -
b11 k
b11 5
1=
1;
19
b1 2
b1 3
1X
1V
1S
b1011101 #
b1011101 +
0!
#955000
1!
#960000
0S
1T
b1011110 #
b1011110 +
0!
#965000
1!
#970000
1~
0o
1{
0z
1y
b110 &
b110 .
b110 n
0v
0t
1|
0w
0r
17
0B
1A
0@
b100 -
b100 k
b0 5
0=
0;
1>
09
1U
b10 2
b10 3
0X
1W
0V
1S
b1011111 #
b1011111 +
0!
#975000
1!
#980000
b10 &
b10 .
b10 n
0""
0~
0|
b0 -
b0 k
07
0A
0>
0?
b0 2
b0 3
0U
0W
b0 1
b0 4
0[
0]
0S
0T
0Y
0Z
0_
1`
b1100000 #
b1100000 +
0!
#985000
1!
#990000
1'
b11 &
b11 .
b11 n
1v
1t
1r
b1 -
b1 k
b1 5
1=
1;
19
b1 2
b1 3
1X
1V
1S
b1100001 #
b1100001 +
0!
#995000
1(
1!
#1000000
0S
1T
b1100010 #
b1100010 +
0!
#1005000
1!
#1010000
1""
0'
1o
0{
1z
0y
b100 &
b100 .
b100 n
0v
0t
1w
0r
1B
1@
b10 -
b10 k
b10 5
0=
0;
1>
09
1U
b10 2
b10 3
0X
1W
0V
1S
b1100011 #
b1100011 +
0!
#1015000
0(
1!
#1020000
1'
0""
0o
1{
0z
1y
b11 &
b11 .
b11 n
1v
1t
0w
1r
0B
0@
b1 -
b1 k
b1 5
1=
1;
0>
1:
b0 2
b0 3
0U
0W
b1 1
b1 4
1^
1\
0S
0T
1Y
b1100100 #
b1100100 +
0!
#1025000
1(
1!
#1030000
1""
0'
1o
0{
1z
0y
0)
1w
b100 &
b100 .
b100 n
0v
0t
1B
0r
16
b10 -
b10 k
b10 5
0=
1<
0;
19
b1 2
b1 3
1X
1V
1S
b1100101 #
b1100101 +
0!
#1035000
0(
1!
#1040000
0S
1T
b1100110 #
b1100110 +
0!
#1045000
1!
#1050000
b101 &
b101 .
b101 n
1v
1t
1r
1@
06
b11 -
b11 k
b11 5
1=
0<
1;
1>
09
1U
b10 2
b10 3
0X
1W
0V
1S
b1100111 #
b1100111 +
0!
#1055000
1!
#1060000
1'
0""
0o
b11 &
b11 .
b11 n
1{
0z
1y
0w
b1 -
b1 k
b1 5
0B
0@
0>
b0 2
b0 3
0U
0W
0S
0T
0Y
1Z
b1101000 #
b1101000 +
0!
#1065000
1(
1!
#1070000
1""
0'
1o
0{
1z
0y
0)
1w
b100 &
b100 .
b100 n
0v
0t
1B
0r
16
b10 -
b10 k
b10 5
0=
1<
0;
19
b1 2
b1 3
1X
1V
1S
b1101001 #
b1101001 +
0!
#1075000
0(
1!
#1080000
0S
1T
b1101010 #
b1101010 +
0!
#1085000
1!
#1090000
b101 &
b101 .
b101 n
1v
1t
1r
1@
06
b11 -
b11 k
b11 5
1=
0<
1;
1>
09
1U
b10 2
b10 3
0X
1W
0V
1S
b1101011 #
b1101011 +
0!
#1095000
1!
#1100000
b100 &
b100 .
b100 n
0v
0t
0r
b10 -
b10 k
b10 5
0=
0;
0>
1?
0:
b0 2
b0 3
0U
0W
1[
b10 1
b10 4
0^
1]
0\
0S
0T
1Y
b1101100 #
b1101100 +
0!
#1105000
1!
#1110000
b101 &
b101 .
b101 n
1v
1t
1r
b11 -
b11 k
b11 5
1=
1;
19
b1 2
b1 3
1X
1V
1S
b1101101 #
b1101101 +
0!
#1115000
1!
#1120000
0S
1T
b1101110 #
b1101110 +
0!
#1125000
1!
#1130000
1~
0o
1{
0z
1y
b110 &
b110 .
b110 n
0v
0t
1|
0w
0r
17
0B
1A
0@
b100 -
b100 k
b0 5
0=
0;
1>
09
1U
b10 2
b10 3
0X
1W
0V
1S
b1101111 #
b1101111 +
0!
#1135000
1!
#1140000
1'
0""
0~
b11 &
b11 .
b11 n
1v
1t
0|
1s
b0 -
b0 k
07
0A
1P
0F
b11 ,
b11 l
b11 E
1M
0L
1K
0>
0?
1N
0I
b0 2
b0 3
0U
0W
b0 1
b0 4
0[
0]
1a
b10 0
b10 C
0d
1c
0b
0S
0T
0Y
0Z
1_
b1110000 #
b1110000 +
0!
#1145000
1(
1!
#1150000
1""
0'
1o
0{
0)
1p
b100 &
b100 .
b100 n
0v
1u
0t
1r
b1 -
b1 k
b1 5
1=
1;
19
b1 2
b1 3
1X
1V
1S
b1110001 #
b1110001 +
0!
#1155000
0(
1!
#1160000
0S
1T
b1110010 #
b1110010 +
0!
#1165000
1!
#1170000
1z
0y
0p
b101 &
b101 .
b101 n
1v
0u
1t
1w
0r
1B
1@
b10 -
b10 k
b10 5
0=
0;
1>
09
1U
b10 2
b10 3
0X
1W
0V
1S
b1110011 #
b1110011 +
0!
#1175000
1!
#1180000
0z
1y
1p
b100 &
b100 .
b100 n
0v
1u
0t
0w
1r
0B
0@
b1 -
b1 k
b1 5
1=
1;
0>
1:
b0 2
b0 3
0U
0W
b1 1
b1 4
1^
1\
0S
0T
1Y
b1110100 #
b1110100 +
0!
#1185000
1!
#1190000
1z
0y
1w
0p
b101 &
b101 .
b101 n
1v
0u
1t
1B
0r
16
b10 -
b10 k
b10 5
0=
1<
0;
19
b1 2
b1 3
1X
1V
1S
b1110101 #
b1110101 +
0!
#1195000
1!
#1200000
0S
1T
b1110110 #
b1110110 +
0!
#1205000
1!
#1210000
1{
1p
b110 &
b110 .
b110 n
0v
1u
0t
1r
1@
06
b11 -
b11 k
b11 5
1=
0<
1;
1>
09
1U
b10 2
b10 3
0X
1W
0V
1S
b1110111 #
b1110111 +
0!
#1215000
1!
