01_game_of_life/led_array_driver.vcd
$date
	Mon Oct 11 21:46:18 2021
$end
$version
	Icarus Verilog
$end
$timescale
	1ps
$end
$scope module test_led_array_driver $end
$scope module UUT $end
$var wire 9 ! cells [8:0] $end
$var wire 1 " ena $end
$var wire 3 # x [2:0] $end
$var wire 3 $ rows [2:0] $end
$var wire 3 % cols [2:0] $end
$scope begin driver_row[0] $end
$upscope $end
$scope begin driver_row[1] $end
$upscope $end
$scope begin driver_row[2] $end
$upscope $end
$scope module COL_DECODER $end
$var wire 1 " ena $end
$var wire 3 & in [2:0] $end
$var wire 8 ' out [7:0] $end
$var wire 4 ( ena1 [3:0] $end
$scope module dec0 $end
$var wire 1 ) ena $end
$var wire 2 * in [1:0] $end
$var wire 4 + out [3:0] $end
$var wire 2 , ena1 [1:0] $end
$scope module dec0 $end
$var wire 1 - ena $end
$var wire 1 . in $end
$var reg 2 / out [1:0] $end
$upscope $end
$scope module dec1 $end
$var wire 1 0 ena $end
$var wire 1 1 in $end
$var reg 2 2 out [1:0] $end
$upscope $end
$scope module switcher $end
$var wire 1 ) ena $end
$var wire 1 3 in $end
$var reg 2 4 out [1:0] $end
$upscope $end
$upscope $end
$scope module dec1 $end
$var wire 1 5 ena $end
$var wire 2 6 in [1:0] $end
$var wire 4 7 out [3:0] $end
$var wire 2 8 ena1 [1:0] $end
$scope module dec0 $end
$var wire 1 9 ena $end
$var wire 1 : in $end
$var reg 2 ; out [1:0] $end
$upscope $end
$scope module dec1 $end
$var wire 1 < ena $end
$var wire 1 = in $end
$var reg 2 > out [1:0] $end
$upscope $end
$scope module switcher $end
$var wire 1 5 ena $end
$var wire 1 ? in $end
$var reg 2 @ out [1:0] $end
$upscope $end
$upscope $end
$scope module switcher $end
$var wire 1 " ena $end
$var wire 1 A in $end
$var reg 2 B out [1:0] $end
$upscope $end
$upscope $end
$upscope $end
$upscope $end
$enddefinitions $end
#0
$dumpvars
b0 B
0A
b0 @
0?
b0 >
0=
0<
b0 ;
0:
09
b0 8
b0 7
b0 6
05
b0 4
03
b0 2
01
00
b0 /
0.
0-
b0 ,
b0 +
b0 *
0)
b0 (
b0 '
b0 &
b0 %
b0 $
b0 #
0"
b111111111 !
$end
#1000
b1 %
b1 '
b1 +
b1 /
1-
b1 ,
b1 4
1)
b1 (
b1 B
b110 $
b1 !
1"
#2000
b111 $
b10 %
b10 '
b10 +
b10 /
1=
1:
11
1.
b1 6
b1 *
b1 !
b1 #
b1 &
#3000
b111 $
b1 2
0-
10
b100 %
b10 ,
b10 4
b100 '
b100 +
b0 /
1?
0=
0:
13
01
0.
b10 6
b10 *
b1 !
b10 #
b10 &
#4000
b101 $
b1 %
b1 /
b1 '
b1 +
b0 2
1-
00
b1 ,
b1 4
0?
03
b0 6
b0 *
b1000 !
b0 #
b0 &
#5000
b111 $
b10 %
b10 '
b10 +
b10 /
1=
1:
11
1.
b1 6
b1 *
b1000 !
b1 #
b1 &
#6000
b111 $
b1 2
0-
10
b100 %
b10 ,
b10 4
b100 '
b100 +
b0 /
1?
0=
0:
13
01
0.
b10 6
b10 *
b1000 !
b10 #
b10 &
#7000
b11 $
b1 %
b1 /
b1 '
b1 +
b0 2
1-
00
b1 ,
b1 4
0?
03
b0 6
b0 *
b1000000 !
b0 #
b0 &
#8000
b111 $
b10 %
b10 '
b10 +
b10 /
1=
1:
11
1.
b1 6
b1 *
b1000000 !
b1 #
b1 &
#9000
b111 $
b1 2
0-
10
b100 %
b10 ,
b10 4
b100 '
b100 +
b0 /
1?
0=
0:
13
01
0.
b10 6
b10 *
b1000000 !
b10 #
b10 &
#10000
b1 %
b1 /
b1 '
b1 +
b0 2
1-
00
b1 ,
b1 4
0?
03
b0 6
b0 *
b10 !
b0 #
b0 &
#11000
b110 $
b10 %
b10 '
b10 +
b10 /
1=
1:
11
1.
b1 6
b1 *
b10 !
b1 #
b1 &
#12000
b111 $
b1 2
0-
10
b100 %
b10 ,
b10 4
b100 '
b100 +
b0 /
1?
0=
0:
13
01
0.
b10 6
b10 *
b10 !
b10 #
b10 &
#13000
b1 %
b1 /
b1 '
b1 +
b0 2
1-
00
b1 ,
b1 4
0?
03
b0 6
b0 *
b10000 !
b0 #
b0 &
#14000
b101 $
b10 %
b10 '
b10 +
b10 /
1=
1:
11
1.
b1 6
b1 *
b10000 !
b1 #
b1 &
#15000
b111 $
b1 2
0-
10
b100 %
b10 ,
b10 4
b100 '
b100 +
b0 /
1?
0=
0:
13
01
0.
b10 6
b10 *
b10000 !
b10 #
b10 &
#16000
b1 %
b1 /
b1 '
b1 +
b0 2
1-
00
b1 ,
b1 4
0?
03
b0 6
b0 *
b10000000 !
b0 #
b0 &
#17000
b11 $
b10 %
b10 '
b10 +
b10 /
1=
1:
11
1.
b1 6
b1 *
b10000000 !
b1 #
b1 &
#18000
b111 $
b1 2
0-
10
b100 %
b10 ,
b10 4
b100 '
b100 +
b0 /
1?
0=
0:
13
01
0.
b10 6
b10 *
b10000000 !
b10 #
b10 &
#19000
b1 %
b1 /
b1 '
b1 +
b0 2
1-
00
b111 $
b1 ,
b1 4
0?
03
b0 6
b0 *
b100 !
b0 #
b0 &
#20000
b10 %
b10 '
b10 +
b10 /
1=
1:
11
1.
b1 6
b1 *
b100 !
b1 #
b1 &
#21000
b110 $
b1 2
0-
10
b100 %
b10 ,
b10 4
b100 '
b100 +
b0 /
1?
0=
0:
13
01
0.
b10 6
b10 *
b100 !
b10 #
b10 &
#22000
b1 %
b1 /
b1 '
b1 +
b0 2
1-
00
b111 $
b1 ,
b1 4
0?
03
b0 6
b0 *
b100000 !
b0 #
b0 &
#23000
b10 %
b10 '
b10 +
b10 /
1=
1:
11
1.
b1 6
b1 *
b100000 !
b1 #
b1 &
#24000
b101 $
b1 2
0-
10
b100 %
b10 ,
b10 4
b100 '
b100 +
b0 /
1?
0=
0:
13
01
0.
b10 6
b10 *
b100000 !
b10 #
b10 &
#25000
b1 %
b1 /
b1 '
b1 +
b0 2
1-
00
b111 $
b1 ,
b1 4
0?
03
b0 6
b0 *
b100000000 !
b0 #
b0 &
#26000
b10 %
b10 '
b10 +
b10 /
1=
1:
11
1.
b1 6
b1 *
b100000000 !
b1 #
b1 &
#27000
b11 $
b1 2
0-
10
b100 %
b10 ,
b10 4
b100 '
b100 +
b0 /
1?
0=
0:
13
01
0.
b10 6
b10 *
b100000000 !
b10 #
b10 &
#28000
b111 $
b0 %
b1000 '
b1000 +
b10 2
1=
1:
11
1.
b11 6
b11 *
b11 #
b11 &
